
MEMS CONSOLE
=============
GyroConsole_20220829.zip
1. FW update support
2.	must use dual image bootloader and write system sw

DSP must run with Mems_Gyros_DSP_fwupdate_20220829.rar


=============

=============


