//0 X.1,     ... weighting x 8   , the mask[0] :  sensor 7:0, mask[1] : sensor 15:8 
//1 X.2,			 , the mask value =  mask[1]<<8 | mask[0] =  sensor[15:14:13.......:1:0]
//2 Y.1,			 , the mask value from LSB bit 0 represent the sensor 0,  
//3 Y.2,			 , 			   bit 1 represent the sensor 1, .. etc.. 
//4 Z.1,
//5 Z.2,
// Please don't modify this line and above.  selection mask, note: the XYZ's selection mask must be the same
0,0.064995653,0.068842927,0.063195498,0.070890606,0.072177990,0.075332748,0.077403226,0.073104799,0xFF,
1,0.049882432,0.052224450,0.048081193,0.060359725,0.053427743,0.061925643,0.045289142,0.062866224,0xFF,
2,0.085946621,0.076031008,0.057271719,0.050079973,0.067254133,0.079155012,0.061635354,0.051356391,0xFF,
3,0.053982496,0.076674589,0.049655262,0.059669405,0.054912090,0.067966704,0.052227632,0.056181614,0xFF,
4,0.072144961,0.058472500,0.051011832,0.058964630,0.062096525,0.068930620,0.073132981,0.048587438,0xFF,
5,0.049329926,0.063473945,0.066667707,0.070368362,0.063498212,0.070808458,0.059799972,0.062711931,0xFF,
